lab5/lab5_3/simulation/modelsim/msim_transcript
# Reading pref.tcl
# ERROR: No extended dataflow license exists
# do lab5_3_run_msim_rtl_verilog.do
# if {[file exists rtl_work]} {
# 	vdel -lib rtl_work -all
# }
# vlib rtl_work
# vmap work rtl_work
# Model Technology ModelSim - Intel FPGA Edition vmap 2020.1 Lib Mapping Utility 2020.02 Feb 28 2020
# vmap work rtl_work 
# Copying D:/intelFPGA_lite/20.1/modelsim_ase/win32aloem/../modelsim.ini to modelsim.ini
# Modifying modelsim.ini
# 
# vlog -sv -work work +incdir+D:/quartus_lab/lab5/lab5_3 {D:/quartus_lab/lab5/lab5_3/lab5_g30_p3.sv}
# Model Technology ModelSim - Intel FPGA Edition vlog 2020.1 Compiler 2020.02 Feb 28 2020
# Start time: 15:16:29 on May 23,2024
# vlog -reportprogress 300 -sv -work work "+incdir+D:/quartus_lab/lab5/lab5_3" D:/quartus_lab/lab5/lab5_3/lab5_g30_p3.sv 
# -- Compiling module lab5_g30_p3
# 
# Top level modules:
# 	lab5_g30_p3
# End time: 15:16:29 on May 23,2024, Elapsed time: 0:00:00
# Errors: 0, Warnings: 0
# 
# vlog -sv -work work +incdir+D:/quartus_lab/lab5/lab5_3 {D:/quartus_lab/lab5/lab5_3/tb_lab5_g30_p3.sv}
# Model Technology ModelSim - Intel FPGA Edition vlog 2020.1 Compiler 2020.02 Feb 28 2020
# Start time: 15:16:29 on May 23,2024
# vlog -reportprogress 300 -sv -work work "+incdir+D:/quartus_lab/lab5/lab5_3" D:/quartus_lab/lab5/lab5_3/tb_lab5_g30_p3.sv 
# -- Compiling module tb_lab5_g30_p3
# 
# Top level modules:
# 	tb_lab5_g30_p3
# End time: 15:16:29 on May 23,2024, Elapsed time: 0:00:00
# Errors: 0, Warnings: 0
# 
# vsim -t 1ps -L altera_ver -L lpm_ver -L sgate_ver -L altera_mf_ver -L altera_lnsim_ver -L fiftyfivenm_ver -L rtl_work -L work -voptargs="+acc"  tb_lab5_g30_p3
# vsim -t 1ps -L altera_ver -L lpm_ver -L sgate_ver -L altera_mf_ver -L altera_lnsim_ver -L fiftyfivenm_ver -L rtl_work -L work -voptargs=""+acc"" tb_lab5_g30_p3 
# Start time: 15:16:29 on May 23,2024
# Loading sv_std.std
# Loading work.tb_lab5_g30_p3
# Loading work.lab5_g30_p3
# 
# add wave *
# view structure
# .main_pane.structure.interior.cs.body.struct
# view signals
# .main_pane.objects.interior.cs.body.tree
# run -all
# Time: 0 | clk: 1 | reset: 0 | A: x | Y: 0 | state: 0
# Time: 5000 | clk: 0 | reset: 0 | A: x | Y: 0 | state: 0
# Time: 10000 | clk: 1 | reset: 1 | A: 0 | Y: 0 | state: X
# Time: 15000 | clk: 0 | reset: 1 | A: 0 | Y: 0 | state: X
# Time: 20000 | clk: 1 | reset: 1 | A: 0 | Y: 0 | state: 0
# Time: 25000 | clk: 0 | reset: 1 | A: 1 | Y: 0 | state: 0
# Time: 30000 | clk: 1 | reset: 1 | A: 1 | Y: 0 | state: 5
# Time: 35000 | clk: 0 | reset: 1 | A: 0 | Y: 0 | state: 5
# Time: 40000 | clk: 1 | reset: 1 | A: 0 | Y: 0 | state: 0
# Time: 45000 | clk: 0 | reset: 1 | A: 0 | Y: 0 | state: 0
# Time: 50000 | clk: 1 | reset: 1 | A: 0 | Y: 0 | state: 1
# Time: 55000 | clk: 0 | reset: 1 | A: 0 | Y: 0 | state: 1
# Time: 60000 | clk: 1 | reset: 1 | A: 0 | Y: 0 | state: 2
# Time: 65000 | clk: 0 | reset: 1 | A: 0 | Y: 0 | state: 2
# Time: 70000 | clk: 1 | reset: 1 | A: 0 | Y: 0 | state: 3
# Time: 75000 | clk: 0 | reset: 1 | A: 1 | Y: 0 | state: 3
# Time: 80000 | clk: 1 | reset: 1 | A: 1 | Y: 0 | state: 5
# Time: 85000 | clk: 0 | reset: 1 | A: 1 | Y: 0 | state: 5
# Time: 90000 | clk: 1 | reset: 1 | A: 1 | Y: 0 | state: 6
# Time: 95000 | clk: 0 | reset: 1 | A: 1 | Y: 0 | state: 6
# Time: 100000 | clk: 1 | reset: 1 | A: 1 | Y: 0 | state: 7
# Time: 105000 | clk: 0 | reset: 1 | A: 1 | Y: 0 | state: 7
# Time: 110000 | clk: 1 | reset: 1 | A: 1 | Y: 1 | state: 8
# Time: 115000 | clk: 0 | reset: 1 | A: 1 | Y: 1 | state: 8
# Time: 120000 | clk: 1 | reset: 1 | A: 1 | Y: 1 | state: 8
# Time: 125000 | clk: 0 | reset: 1 | A: 1 | Y: 1 | state: 8
# Time: 130000 | clk: 1 | reset: 1 | A: 1 | Y: 1 | state: 8
# Time: 135000 | clk: 0 | reset: 1 | A: 0 | Y: 1 | state: 8
# Time: 140000 | clk: 1 | reset: 1 | A: 0 | Y: 0 | state: 0
# Time: 145000 | clk: 0 | reset: 1 | A: 0 | Y: 0 | state: 0
# Time: 150000 | clk: 1 | reset: 1 | A: 0 | Y: 0 | state: 1
# Time: 155000 | clk: 0 | reset: 1 | A: 0 | Y: 0 | state: 1
# Time: 160000 | clk: 1 | reset: 1 | A: 0 | Y: 0 | state: 2
# Time: 165000 | clk: 0 | reset: 1 | A: 0 | Y: 0 | state: 2
# Time: 170000 | clk: 1 | reset: 1 | A: 0 | Y: 0 | state: 3
# Time: 175000 | clk: 0 | reset: 1 | A: 0 | Y: 0 | state: 3
# Time: 180000 | clk: 1 | reset: 1 | A: 0 | Y: 1 | state: 4
# Time: 185000 | clk: 0 | reset: 1 | A: 0 | Y: 1 | state: 4
# Time: 190000 | clk: 1 | reset: 1 | A: 0 | Y: 1 | state: 4
# Time: 195000 | clk: 0 | reset: 1 | A: 0 | Y: 1 | state: 4
# Time: 200000 | clk: 1 | reset: 1 | A: 0 | Y: 1 | state: 4
# Time: 205000 | clk: 0 | reset: 1 | A: 0 | Y: 1 | state: 4
# Time: 210000 | clk: 1 | reset: 1 | A: 0 | Y: 1 | state: 4
# Time: 215000 | clk: 0 | reset: 1 | A: 0 | Y: 1 | state: 4
# Time: 220000 | clk: 1 | reset: 1 | A: 0 | Y: 1 | state: 4
# Time: 225000 | clk: 0 | reset: 1 | A: 0 | Y: 1 | state: 4
# Time: 230000 | clk: 1 | reset: 1 | A: 0 | Y: 1 | state: 4
# Time: 235000 | clk: 0 | reset: 1 | A: 0 | Y: 1 | state: 4
# Time: 240000 | clk: 1 | reset: 1 | A: 0 | Y: 1 | state: 4
# Time: 245000 | clk: 0 | reset: 1 | A: 0 | Y: 1 | state: 4
# Time: 250000 | clk: 1 | reset: 1 | A: 0 | Y: 1 | state: 4
# Time: 255000 | clk: 0 | reset: 1 | A: 0 | Y: 1 | state: 4
# Time: 260000 | clk: 1 | reset: 1 | A: 0 | Y: 1 | state: 4
# Time: 265000 | clk: 0 | reset: 1 | A: 0 | Y: 1 | state: 4
# Time: 270000 | clk: 1 | reset: 1 | A: 0 | Y: 1 | state: 4
# Time: 275000 | clk: 0 | reset: 1 | A: 0 | Y: 1 | state: 4
# Time: 280000 | clk: 1 | reset: 1 | A: 0 | Y: 1 | state: 4
# Time: 285000 | clk: 0 | reset: 1 | A: 0 | Y: 1 | state: 4
# Time: 290000 | clk: 1 | reset: 1 | A: 0 | Y: 1 | state: 4
# Time: 295000 | clk: 0 | reset: 1 | A: 0 | Y: 1 | state: 4
# Time: 300000 | clk: 1 | reset: 1 | A: 0 | Y: 1 | state: 4
# Time: 305000 | clk: 0 | reset: 1 | A: 0 | Y: 1 | state: 4
# Time: 310000 | clk: 1 | reset: 1 | A: 0 | Y: 1 | state: 4
# Time: 315000 | clk: 0 | reset: 1 | A: 0 | Y: 1 | state: 4
# Time: 320000 | clk: 1 | reset: 1 | A: 0 | Y: 1 | state: 4
# Time: 325000 | clk: 0 | reset: 1 | A: 0 | Y: 1 | state: 4
# Time: 330000 | clk: 1 | reset: 1 | A: 0 | Y: 1 | state: 4
# Time: 335000 | clk: 0 | reset: 1 | A: 0 | Y: 1 | state: 4
# Time: 340000 | clk: 1 | reset: 1 | A: 0 | Y: 1 | state: 4
# Time: 345000 | clk: 0 | reset: 1 | A: 0 | Y: 1 | state: 4
# Time: 350000 | clk: 1 | reset: 1 | A: 0 | Y: 1 | state: 4
# Time: 355000 | clk: 0 | reset: 1 | A: 0 | Y: 1 | state: 4
# Time: 360000 | clk: 1 | reset: 1 | A: 0 | Y: 1 | state: 4
# Time: 365000 | clk: 0 | reset: 1 | A: 0 | Y: 1 | state: 4
# Time: 370000 | clk: 1 | reset: 1 | A: 0 | Y: 1 | state: 4
# Time: 375000 | clk: 0 | reset: 1 | A: 0 | Y: 1 | state: 4
# Time: 380000 | clk: 1 | reset: 1 | A: 0 | Y: 1 | state: 4
# Time: 385000 | clk: 0 | reset: 1 | A: 0 | Y: 1 | state: 4
# Time: 390000 | clk: 1 | reset: 1 | A: 0 | Y: 1 | state: 4
# Time: 395000 | clk: 0 | reset: 1 | A: 0 | Y: 1 | state: 4
# Time: 400000 | clk: 1 | reset: 1 | A: 0 | Y: 1 | state: 4
# Time: 405000 | clk: 0 | reset: 1 | A: 0 | Y: 1 | state: 4
# Time: 410000 | clk: 1 | reset: 1 | A: 0 | Y: 1 | state: 4
# Time: 415000 | clk: 0 | reset: 1 | A: 0 | Y: 1 | state: 4
# Time: 420000 | clk: 1 | reset: 1 | A: 0 | Y: 1 | state: 4
# Time: 425000 | clk: 0 | reset: 1 | A: 0 | Y: 1 | state: 4
# Time: 430000 | clk: 1 | reset: 1 | A: 0 | Y: 1 | state: 4
# Time: 435000 | clk: 0 | reset: 1 | A: 0 | Y: 1 | state: 4
# Time: 440000 | clk: 1 | reset: 1 | A: 0 | Y: 1 | state: 4
# Time: 445000 | clk: 0 | reset: 1 | A: 0 | Y: 1 | state: 4
# Time: 450000 | clk: 1 | reset: 1 | A: 0 | Y: 1 | state: 4
# Time: 455000 | clk: 0 | reset: 1 | A: 0 | Y: 1 | state: 4
# Time: 460000 | clk: 1 | reset: 1 | A: 0 | Y: 1 | state: 4
# Time: 465000 | clk: 0 | reset: 1 | A: 0 | Y: 1 | state: 4
# Time: 470000 | clk: 1 | reset: 1 | A: 0 | Y: 1 | state: 4
# Time: 475000 | clk: 0 | reset: 1 | A: 0 | Y: 1 | state: 4
# Time: 480000 | clk: 1 | reset: 1 | A: 0 | Y: 1 | state: 4
# Time: 485000 | clk: 0 | reset: 1 | A: 0 | Y: 1 | state: 4
# Time: 490000 | clk: 1 | reset: 1 | A: 0 | Y: 1 | state: 4
# Time: 495000 | clk: 0 | reset: 1 | A: 0 | Y: 1 | state: 4
# Time: 500000 | clk: 1 | reset: 1 | A: 0 | Y: 1 | state: 4
# Time: 505000 | clk: 0 | reset: 1 | A: 0 | Y: 1 | state: 4
# Time: 510000 | clk: 1 | reset: 1 | A: 0 | Y: 1 | state: 4
# Time: 515000 | clk: 0 | reset: 1 | A: 0 | Y: 1 | state: 4
# Time: 520000 | clk: 1 | reset: 1 | A: 0 | Y: 1 | state: 4
# Time: 525000 | clk: 0 | reset: 1 | A: 0 | Y: 1 | state: 4
# Time: 530000 | clk: 1 | reset: 1 | A: 0 | Y: 1 | state: 4
# Time: 535000 | clk: 0 | reset: 1 | A: 0 | Y: 1 | state: 4
# Time: 540000 | clk: 1 | reset: 1 | A: 0 | Y: 1 | state: 4
# Time: 545000 | clk: 0 | reset: 1 | A: 0 | Y: 1 | state: 4
# Time: 550000 | clk: 1 | reset: 1 | A: 0 | Y: 1 | state: 4
# Time: 555000 | clk: 0 | reset: 1 | A: 0 | Y: 1 | state: 4
# Time: 560000 | clk: 1 | reset: 1 | A: 0 | Y: 1 | state: 4
# Time: 565000 | clk: 0 | reset: 1 | A: 0 | Y: 1 | state: 4
# Time: 570000 | clk: 1 | reset: 1 | A: 0 | Y: 1 | state: 4
# Time: 575000 | clk: 0 | reset: 1 | A: 0 | Y: 1 | state: 4
# Time: 580000 | clk: 1 | reset: 1 | A: 0 | Y: 1 | state: 4
# Time: 585000 | clk: 0 | reset: 1 | A: 0 | Y: 1 | state: 4
# Time: 590000 | clk: 1 | reset: 1 | A: 0 | Y: 1 | state: 4
# Time: 595000 | clk: 0 | reset: 1 | A: 0 | Y: 1 | state: 4
# Time: 600000 | clk: 1 | reset: 1 | A: 0 | Y: 1 | state: 4
# Time: 605000 | clk: 0 | reset: 1 | A: 0 | Y: 1 | state: 4
# Time: 610000 | clk: 1 | reset: 1 | A: 0 | Y: 1 | state: 4
# Time: 615000 | clk: 0 | reset: 1 | A: 0 | Y: 1 | state: 4
# Time: 620000 | clk: 1 | reset: 1 | A: 0 | Y: 1 | state: 4
# Time: 625000 | clk: 0 | reset: 1 | A: 0 | Y: 1 | state: 4
# Time: 630000 | clk: 1 | reset: 1 | A: 0 | Y: 1 | state: 4
# Time: 635000 | clk: 0 | reset: 1 | A: 0 | Y: 1 | state: 4
# Time: 640000 | clk: 1 | reset: 1 | A: 0 | Y: 1 | state: 4
# Time: 645000 | clk: 0 | reset: 1 | A: 0 | Y: 1 | state: 4
# Time: 650000 | clk: 1 | reset: 1 | A: 0 | Y: 1 | state: 4
# Time: 655000 | clk: 0 | reset: 1 | A: 0 | Y: 1 | state: 4
# Time: 660000 | clk: 1 | reset: 1 | A: 0 | Y: 1 | state: 4
# Time: 665000 | clk: 0 | reset: 1 | A: 0 | Y: 1 | state: 4
# Time: 670000 | clk: 1 | reset: 1 | A: 0 | Y: 1 | state: 4
# Time: 675000 | clk: 0 | reset: 1 | A: 0 | Y: 1 | state: 4
# Time: 680000 | clk: 1 | reset: 1 | A: 0 | Y: 1 | state: 4
# Time: 685000 | clk: 0 | reset: 1 | A: 0 | Y: 1 | state: 4
# Time: 690000 | clk: 1 | reset: 1 | A: 0 | Y: 1 | state: 4
# Time: 695000 | clk: 0 | reset: 1 | A: 0 | Y: 1 | state: 4
# Time: 700000 | clk: 1 | reset: 1 | A: 0 | Y: 1 | state: 4
# Time: 705000 | clk: 0 | reset: 1 | A: 0 | Y: 1 | state: 4
# Time: 710000 | clk: 1 | reset: 1 | A: 0 | Y: 1 | state: 4
# Time: 715000 | clk: 0 | reset: 1 | A: 0 | Y: 1 | state: 4
# Time: 720000 | clk: 1 | reset: 1 | A: 0 | Y: 1 | state: 4
# Time: 725000 | clk: 0 | reset: 1 | A: 0 | Y: 1 | state: 4
# Time: 730000 | clk: 1 | reset: 1 | A: 0 | Y: 1 | state: 4
# Time: 735000 | clk: 0 | reset: 1 | A: 0 | Y: 1 | state: 4
# Time: 740000 | clk: 1 | reset: 1 | A: 0 | Y: 1 | state: 4
# Time: 745000 | clk: 0 | reset: 1 | A: 0 | Y: 1 | state: 4
# Time: 750000 | clk: 1 | reset: 1 | A: 0 | Y: 1 | state: 4
# Time: 755000 | clk: 0 | reset: 1 | A: 0 | Y: 1 | state: 4
# Time: 760000 | clk: 1 | reset: 1 | A: 0 | Y: 1 | state: 4
# Time: 765000 | clk: 0 | reset: 1 | A: 0 | Y: 1 | state: 4
# Time: 770000 | clk: 1 | reset: 1 | A: 0 | Y: 1 | state: 4
# Time: 775000 | clk: 0 | reset: 1 | A: 0 | Y: 1 | state: 4
# Time: 780000 | clk: 1 | reset: 1 | A: 0 | Y: 1 | state: 4
# Time: 785000 | clk: 0 | reset: 1 | A: 0 | Y: 1 | state: 4
# Time: 790000 | clk: 1 | reset: 1 | A: 0 | Y: 1 | state: 4
# Time: 795000 | clk: 0 | reset: 1 | A: 0 | Y: 1 | state: 4
# Time: 800000 | clk: 1 | reset: 1 | A: 0 | Y: 1 | state: 4
# Time: 805000 | clk: 0 | reset: 1 | A: 0 | Y: 1 | state: 4
# Time: 810000 | clk: 1 | reset: 1 | A: 0 | Y: 1 | state: 4
# Time: 815000 | clk: 0 | reset: 1 | A: 0 | Y: 1 | state: 4
# Time: 820000 | clk: 1 | reset: 1 | A: 0 | Y: 1 | state: 4
# Time: 825000 | clk: 0 | reset: 1 | A: 0 | Y: 1 | state: 4
# Time: 830000 | clk: 1 | reset: 1 | A: 0 | Y: 1 | state: 4
# Time: 835000 | clk: 0 | reset: 1 | A: 0 | Y: 1 | state: 4
# Time: 840000 | clk: 1 | reset: 1 | A: 0 | Y: 1 | state: 4
# Time: 845000 | clk: 0 | reset: 1 | A: 0 | Y: 1 | state: 4
# Time: 850000 | clk: 1 | reset: 1 | A: 0 | Y: 1 | state: 4
# Time: 855000 | clk: 0 | reset: 1 | A: 0 | Y: 1 | state: 4
# Time: 860000 | clk: 1 | reset: 1 | A: 0 | Y: 1 | state: 4
# Time: 865000 | clk: 0 | reset: 1 | A: 0 | Y: 1 | state: 4
# Time: 870000 | clk: 1 | reset: 1 | A: 0 | Y: 1 | state: 4
# Time: 875000 | clk: 0 | reset: 1 | A: 0 | Y: 1 | state: 4
# Time: 880000 | clk: 1 | reset: 1 | A: 0 | Y: 1 | state: 4
# Time: 885000 | clk: 0 | reset: 1 | A: 0 | Y: 1 | state: 4
# Time: 890000 | clk: 1 | reset: 1 | A: 0 | Y: 1 | state: 4
# Time: 895000 | clk: 0 | reset: 1 | A: 0 | Y: 1 | state: 4
# Time: 900000 | clk: 1 | reset: 1 | A: 0 | Y: 1 | state: 4
# Time: 905000 | clk: 0 | reset: 1 | A: 0 | Y: 1 | state: 4
# Time: 910000 | clk: 1 | reset: 1 | A: 0 | Y: 1 | state: 4
# Time: 915000 | clk: 0 | reset: 1 | A: 0 | Y: 1 | state: 4
# Time: 920000 | clk: 1 | reset: 1 | A: 0 | Y: 1 | state: 4
# Time: 925000 | clk: 0 | reset: 1 | A: 0 | Y: 1 | state: 4
# Time: 930000 | clk: 1 | reset: 1 | A: 0 | Y: 1 | state: 4
# Time: 935000 | clk: 0 | reset: 1 | A: 0 | Y: 1 | state: 4
# Time: 940000 | clk: 1 | reset: 1 | A: 0 | Y: 1 | state: 4
# Time: 945000 | clk: 0 | reset: 1 | A: 0 | Y: 1 | state: 4
# Time: 950000 | clk: 1 | reset: 1 | A: 0 | Y: 1 | state: 4
# Time: 955000 | clk: 0 | reset: 1 | A: 0 | Y: 1 | state: 4
# Time: 960000 | clk: 1 | reset: 1 | A: 0 | Y: 1 | state: 4
# Time: 965000 | clk: 0 | reset: 1 | A: 0 | Y: 1 | state: 4
# Time: 970000 | clk: 1 | reset: 1 | A: 0 | Y: 1 | state: 4
# Time: 975000 | clk: 0 | reset: 1 | A: 0 | Y: 1 | state: 4
# Time: 980000 | clk: 1 | reset: 1 | A: 0 | Y: 1 | state: 4
# Time: 985000 | clk: 0 | reset: 1 | A: 0 | Y: 1 | state: 4
# Time: 990000 | clk: 1 | reset: 1 | A: 0 | Y: 1 | state: 4
# Time: 995000 | clk: 0 | reset: 1 | A: 0 | Y: 1 | state: 4
# ** Note: $stop    : D:/quartus_lab/lab5/lab5_3/tb_lab5_g30_p3.sv(44)
#    Time: 1 us  Iteration: 0  Instance: /tb_lab5_g30_p3
# Break in Module tb_lab5_g30_p3 at D:/quartus_lab/lab5/lab5_3/tb_lab5_g30_p3.sv line 44
# End time: 15:17:11 on May 23,2024, Elapsed time: 0:00:42
# Errors: 0, Warnings: 0
