lab5/lab5_g29_p1/simulation/modelsim/msim_transcript
# Reading pref.tcl
# ERROR: No extended dataflow license exists
# do lab5_g29_p1_run_msim_rtl_verilog.do
# if {[file exists rtl_work]} {
# 	vdel -lib rtl_work -all
# }
# vlib rtl_work
# vmap work rtl_work
# Model Technology ModelSim - Intel FPGA Edition vmap 2020.1 Lib Mapping Utility 2020.02 Feb 28 2020
# vmap work rtl_work 
# Copying D:/intelFPGA_lite/20.1/modelsim_ase/win32aloem/../modelsim.ini to modelsim.ini
# Modifying modelsim.ini
# 
# vlog -sv -work work +incdir+D:/quartus_lab/lab5/lab5_g29_p1 {D:/quartus_lab/lab5/lab5_g29_p1/lab5_g29_p1.sv}
# Model Technology ModelSim - Intel FPGA Edition vlog 2020.1 Compiler 2020.02 Feb 28 2020
# Start time: 15:11:27 on May 28,2024
# vlog -reportprogress 300 -sv -work work "+incdir+D:/quartus_lab/lab5/lab5_g29_p1" D:/quartus_lab/lab5/lab5_g29_p1/lab5_g29_p1.sv 
# -- Compiling module lab5_g29_p1
# 
# Top level modules:
# 	lab5_g29_p1
# End time: 15:11:27 on May 28,2024, Elapsed time: 0:00:00
# Errors: 0, Warnings: 0
# 
# vlog -sv -work work +incdir+D:/quartus_lab/lab5/lab5_g29_p1 {D:/quartus_lab/lab5/lab5_g29_p1/lab5_g29_p1_tb.sv}
# Model Technology ModelSim - Intel FPGA Edition vlog 2020.1 Compiler 2020.02 Feb 28 2020
# Start time: 15:11:27 on May 28,2024
# vlog -reportprogress 300 -sv -work work "+incdir+D:/quartus_lab/lab5/lab5_g29_p1" D:/quartus_lab/lab5/lab5_g29_p1/lab5_g29_p1_tb.sv 
# -- Compiling module lab5_g29_p1_tb
# 
# Top level modules:
# 	lab5_g29_p1_tb
# End time: 15:11:27 on May 28,2024, Elapsed time: 0:00:00
# Errors: 0, Warnings: 0
# 
# vsim -t 1ps -L altera_ver -L lpm_ver -L sgate_ver -L altera_mf_ver -L altera_lnsim_ver -L fiftyfivenm_ver -L rtl_work -L work -voptargs="+acc"  lab5_g29_p1_tb
# vsim -t 1ps -L altera_ver -L lpm_ver -L sgate_ver -L altera_mf_ver -L altera_lnsim_ver -L fiftyfivenm_ver -L rtl_work -L work -voptargs=""+acc"" lab5_g29_p1_tb 
# Start time: 15:11:27 on May 28,2024
# Loading sv_std.std
# Loading work.lab5_g29_p1_tb
# Loading work.lab5_g29_p1
# 
# add wave *
# view structure
# .main_pane.structure.interior.cs.body.struct
# view signals
# .main_pane.objects.interior.cs.body.tree
# run -all
# Time = 0 : clk = 0, reset = 0, en = 0, psc = 10, tick = 0, counter =  0
# Time = 5 : clk = 1, reset = 0, en = 0, psc = 10, tick = 0, counter =  0
# Time = 10 : clk = 0, reset = 1, en = 0, psc = 10, tick = 0, counter =  0
# Time = 15 : clk = 1, reset = 1, en = 0, psc = 10, tick = 0, counter =  0
# Time = 20 : clk = 0, reset = 1, en = 1, psc = 10, tick = 0, counter =  0
# Time = 25 : clk = 1, reset = 1, en = 1, psc = 10, tick = 0, counter =  1
# Time = 30 : clk = 0, reset = 1, en = 1, psc = 10, tick = 0, counter =  1
# Time = 35 : clk = 1, reset = 1, en = 1, psc = 10, tick = 0, counter =  2
# Time = 40 : clk = 0, reset = 1, en = 1, psc = 10, tick = 0, counter =  2
# Time = 45 : clk = 1, reset = 1, en = 1, psc = 10, tick = 0, counter =  3
# Time = 50 : clk = 0, reset = 1, en = 1, psc = 10, tick = 0, counter =  3
# Time = 55 : clk = 1, reset = 1, en = 1, psc = 10, tick = 0, counter =  4
# Time = 60 : clk = 0, reset = 1, en = 1, psc = 10, tick = 0, counter =  4
# Time = 65 : clk = 1, reset = 1, en = 1, psc = 10, tick = 0, counter =  5
# Time = 70 : clk = 0, reset = 1, en = 1, psc = 10, tick = 0, counter =  5
# Time = 75 : clk = 1, reset = 1, en = 1, psc = 10, tick = 0, counter =  6
# Time = 80 : clk = 0, reset = 1, en = 1, psc = 10, tick = 0, counter =  6
# Time = 85 : clk = 1, reset = 1, en = 1, psc = 10, tick = 0, counter =  7
# Time = 90 : clk = 0, reset = 1, en = 1, psc = 10, tick = 0, counter =  7
# Time = 95 : clk = 1, reset = 1, en = 1, psc = 10, tick = 0, counter =  8
# Time = 100 : clk = 0, reset = 1, en = 1, psc = 10, tick = 0, counter =  8
# Time = 105 : clk = 1, reset = 1, en = 1, psc = 10, tick = 0, counter =  9
# Time = 110 : clk = 0, reset = 1, en = 1, psc = 10, tick = 0, counter =  9
# Time = 115 : clk = 1, reset = 1, en = 1, psc = 10, tick = 0, counter = 10
# Time = 120 : clk = 0, reset = 1, en = 1, psc = 10, tick = 0, counter = 10
# Time = 125 : clk = 1, reset = 1, en = 1, psc = 10, tick = 1, counter =  0
# Time = 130 : clk = 0, reset = 1, en = 1, psc = 10, tick = 1, counter =  0
# Time = 135 : clk = 1, reset = 1, en = 1, psc = 10, tick = 0, counter =  1
# Time = 140 : clk = 0, reset = 1, en = 1, psc = 10, tick = 0, counter =  1
# Time = 145 : clk = 1, reset = 1, en = 1, psc = 10, tick = 0, counter =  2
# Time = 150 : clk = 0, reset = 1, en = 1, psc = 10, tick = 0, counter =  2
# Time = 155 : clk = 1, reset = 1, en = 1, psc = 10, tick = 0, counter =  3
# Time = 160 : clk = 0, reset = 1, en = 1, psc = 10, tick = 0, counter =  3
# Time = 165 : clk = 1, reset = 1, en = 1, psc = 10, tick = 0, counter =  4
# Time = 170 : clk = 0, reset = 1, en = 1, psc = 10, tick = 0, counter =  4
# Time = 175 : clk = 1, reset = 1, en = 1, psc = 10, tick = 0, counter =  5
# Time = 180 : clk = 0, reset = 1, en = 1, psc = 10, tick = 0, counter =  5
# Time = 185 : clk = 1, reset = 1, en = 1, psc = 10, tick = 0, counter =  6
# Time = 190 : clk = 0, reset = 1, en = 1, psc = 10, tick = 0, counter =  6
# Time = 195 : clk = 1, reset = 1, en = 1, psc = 10, tick = 0, counter =  7
# Time = 200 : clk = 0, reset = 1, en = 1, psc = 10, tick = 0, counter =  7
# Time = 205 : clk = 1, reset = 1, en = 1, psc = 10, tick = 0, counter =  8
# Time = 210 : clk = 0, reset = 1, en = 1, psc = 10, tick = 0, counter =  8
# Time = 215 : clk = 1, reset = 1, en = 1, psc = 10, tick = 0, counter =  9
# Time = 220 : clk = 0, reset = 1, en = 1, psc = 10, tick = 0, counter =  9
# Time = 225 : clk = 1, reset = 1, en = 1, psc = 10, tick = 0, counter = 10
# Time = 230 : clk = 0, reset = 1, en = 1, psc = 15, tick = 0, counter = 10
# Time = 235 : clk = 1, reset = 1, en = 1, psc = 15, tick = 0, counter = 11
# Time = 240 : clk = 0, reset = 1, en = 1, psc = 15, tick = 0, counter = 11
# Time = 245 : clk = 1, reset = 1, en = 1, psc = 15, tick = 0, counter = 12
# Time = 250 : clk = 0, reset = 1, en = 1, psc = 15, tick = 0, counter = 12
# Time = 255 : clk = 1, reset = 1, en = 1, psc = 15, tick = 0, counter = 13
# Time = 260 : clk = 0, reset = 1, en = 1, psc = 15, tick = 0, counter = 13
# Time = 265 : clk = 1, reset = 1, en = 1, psc = 15, tick = 0, counter = 14
# Time = 270 : clk = 0, reset = 1, en = 1, psc = 15, tick = 0, counter = 14
# Time = 275 : clk = 1, reset = 1, en = 1, psc = 15, tick = 0, counter = 15
# Time = 280 : clk = 0, reset = 1, en = 1, psc = 15, tick = 0, counter = 15
# Time = 285 : clk = 1, reset = 1, en = 1, psc = 15, tick = 1, counter =  0
# Time = 290 : clk = 0, reset = 1, en = 1, psc = 15, tick = 1, counter =  0
# Time = 295 : clk = 1, reset = 1, en = 1, psc = 15, tick = 0, counter =  1
# Time = 300 : clk = 0, reset = 1, en = 1, psc = 15, tick = 0, counter =  1
# Time = 305 : clk = 1, reset = 1, en = 1, psc = 15, tick = 0, counter =  2
# Time = 310 : clk = 0, reset = 1, en = 1, psc = 15, tick = 0, counter =  2
# Time = 315 : clk = 1, reset = 1, en = 1, psc = 15, tick = 0, counter =  3
# Time = 320 : clk = 0, reset = 1, en = 1, psc = 15, tick = 0, counter =  3
# Time = 325 : clk = 1, reset = 1, en = 1, psc = 15, tick = 0, counter =  4
# Time = 330 : clk = 0, reset = 1, en = 1, psc = 15, tick = 0, counter =  4
# Time = 335 : clk = 1, reset = 1, en = 1, psc = 15, tick = 0, counter =  5
# Time = 340 : clk = 0, reset = 1, en = 1, psc = 15, tick = 0, counter =  5
# Time = 345 : clk = 1, reset = 1, en = 1, psc = 15, tick = 0, counter =  6
# Time = 350 : clk = 0, reset = 1, en = 1, psc = 15, tick = 0, counter =  6
# Time = 355 : clk = 1, reset = 1, en = 1, psc = 15, tick = 0, counter =  7
# Time = 360 : clk = 0, reset = 1, en = 1, psc = 15, tick = 0, counter =  7
# Time = 365 : clk = 1, reset = 1, en = 1, psc = 15, tick = 0, counter =  8
# Time = 370 : clk = 0, reset = 1, en = 1, psc = 15, tick = 0, counter =  8
# Time = 375 : clk = 1, reset = 1, en = 1, psc = 15, tick = 0, counter =  9
# Time = 380 : clk = 0, reset = 1, en = 1, psc = 15, tick = 0, counter =  9
# Time = 385 : clk = 1, reset = 1, en = 1, psc = 15, tick = 0, counter = 10
# Time = 390 : clk = 0, reset = 1, en = 1, psc = 15, tick = 0, counter = 10
# Time = 395 : clk = 1, reset = 1, en = 1, psc = 15, tick = 0, counter = 11
# Time = 400 : clk = 0, reset = 1, en = 1, psc = 15, tick = 0, counter = 11
# Time = 405 : clk = 1, reset = 1, en = 1, psc = 15, tick = 0, counter = 12
# Time = 410 : clk = 0, reset = 1, en = 1, psc = 15, tick = 0, counter = 12
# Time = 415 : clk = 1, reset = 1, en = 1, psc = 15, tick = 0, counter = 13
# Time = 420 : clk = 0, reset = 1, en = 1, psc = 15, tick = 0, counter = 13
# Time = 425 : clk = 1, reset = 1, en = 1, psc = 15, tick = 0, counter = 14
# Time = 430 : clk = 0, reset = 1, en = 1, psc = 15, tick = 0, counter = 14
# Time = 435 : clk = 1, reset = 1, en = 1, psc = 15, tick = 0, counter = 15
# Time = 440 : clk = 0, reset = 1, en = 0, psc = 15, tick = 0, counter = 15
# Time = 445 : clk = 1, reset = 1, en = 0, psc = 15, tick = 0, counter = 15
# Time = 450 : clk = 0, reset = 1, en = 0, psc = 15, tick = 0, counter = 15
# Time = 455 : clk = 1, reset = 1, en = 0, psc = 15, tick = 0, counter = 15
# Time = 460 : clk = 0, reset = 1, en = 0, psc = 15, tick = 0, counter = 15
# Time = 465 : clk = 1, reset = 1, en = 0, psc = 15, tick = 0, counter = 15
# Time = 470 : clk = 0, reset = 1, en = 0, psc = 15, tick = 0, counter = 15
# Time = 475 : clk = 1, reset = 1, en = 0, psc = 15, tick = 0, counter = 15
# Time = 480 : clk = 0, reset = 1, en = 0, psc = 15, tick = 0, counter = 15
# Time = 485 : clk = 1, reset = 1, en = 0, psc = 15, tick = 0, counter = 15
# Time = 490 : clk = 0, reset = 1, en = 0, psc = 15, tick = 0, counter = 15
# Time = 495 : clk = 1, reset = 1, en = 0, psc = 15, tick = 0, counter = 15
# Time = 500 : clk = 0, reset = 1, en = 1, psc = 15, tick = 0, counter = 15
# Time = 505 : clk = 1, reset = 1, en = 1, psc = 15, tick = 1, counter =  0
# Time = 510 : clk = 0, reset = 1, en = 1, psc = 15, tick = 1, counter =  0
# Time = 515 : clk = 1, reset = 1, en = 1, psc = 15, tick = 0, counter =  1
# Time = 520 : clk = 0, reset = 1, en = 1, psc = 15, tick = 0, counter =  1
# Time = 525 : clk = 1, reset = 1, en = 1, psc = 15, tick = 0, counter =  2
# Time = 530 : clk = 0, reset = 1, en = 1, psc = 15, tick = 0, counter =  2
# Time = 535 : clk = 1, reset = 1, en = 1, psc = 15, tick = 0, counter =  3
# Time = 540 : clk = 0, reset = 1, en = 1, psc = 15, tick = 0, counter =  3
# Time = 545 : clk = 1, reset = 1, en = 1, psc = 15, tick = 0, counter =  4
# Time = 550 : clk = 0, reset = 1, en = 1, psc = 15, tick = 0, counter =  4
# Time = 555 : clk = 1, reset = 1, en = 1, psc = 15, tick = 0, counter =  5
# Time = 560 : clk = 0, reset = 1, en = 1, psc = 15, tick = 0, counter =  5
# Time = 565 : clk = 1, reset = 1, en = 1, psc = 15, tick = 0, counter =  6
# Time = 570 : clk = 0, reset = 1, en = 1, psc = 15, tick = 0, counter =  6
# Time = 575 : clk = 1, reset = 1, en = 1, psc = 15, tick = 0, counter =  7
# Time = 580 : clk = 0, reset = 1, en = 1, psc = 15, tick = 0, counter =  7
# Time = 585 : clk = 1, reset = 1, en = 1, psc = 15, tick = 0, counter =  8
# Time = 590 : clk = 0, reset = 1, en = 1, psc = 15, tick = 0, counter =  8
# Time = 595 : clk = 1, reset = 1, en = 1, psc = 15, tick = 0, counter =  9
# ** Note: $stop    : D:/quartus_lab/lab5/lab5_g29_p1/lab5_g29_p1_tb.sv(59)
#    Time: 600 ps  Iteration: 0  Instance: /lab5_g29_p1_tb
# Break in Module lab5_g29_p1_tb at D:/quartus_lab/lab5/lab5_g29_p1/lab5_g29_p1_tb.sv line 59
# End time: 15:11:42 on May 28,2024, Elapsed time: 0:00:15
# Errors: 0, Warnings: 0
